[{
  "relation": ["delegate_permission/common.handle_all_urls"],
  "target": {
    "namespace": "android_app",
    "package_name": "com.gitlab.onreg01.instantapp1",
    "sha256_cert_fingerprints":
    ["54:4E:C4:BD:D3:B3:E8:75:DA:10:E5:1D:EC:D2:3D:FC:C4:E7:9F:C0:24:5F:CF:8F:83:7A:B3:58:3B:B9:6A:4F"]
  }
}]